…
```sql
.maxrows 3
SELECT * FROM Bookmark;
```

```
┌──────────────────────┬──────────────────────┬──────────────────────┬──────────────────────┬───┬──────────────────────┬───────────┬──────────────────────┬───────────┐
│      BookmarkID      │       VolumeID       │      ContentID       │  StartContainerPath  │ … │       SyncTime       │ Published │    ContextString     │   Type    │
│       varchar        │       varchar        │       varchar        │       varchar        │   │       varchar        │  varchar  │       varchar        │  varchar  │
├──────────────────────┼──────────────────────┼──────────────────────┼──────────────────────┼───┼──────────────────────┼───────────┼──────────────────────┼───────────┤
│ 80b095b7-25f7-4476…  │ 2cbaa292-7eeb-4388…  │ 2cbaa292-7eeb-4388…  │ OEBPS/xhtml/Novi_9…  │ … │ 2022-12-30T15:24:41Z │ false     │ The food trays are…  │ dogear    │
│ 57bf2ec7-1d2a-49df…  │ 27f9517f-0f38-4ea7…  │ OEBPS/xhtml/Novi_9…  │ OEBPS/xhtml/Novi_9…  │ … │ 2023-03-07T06:17:47Z │ false     │ I nodded a bit gri…  │ dogear    │
│          ·           │          ·           │          ·           │          ·           │ · │          ·           │   ·       │          ·           │   ·       │
│          ·           │          ·           │          ·           │          ·           │ · │          ·           │   ·       │          ·           │   ·       │
│          ·           │          ·           │          ·           │          ·           │ · │          ·           │   ·       │          ·           │   ·       │
│ c18c2ca2-393b-4eda…  │ file:///mnt/onboar…  │ file:///mnt/onboar…  │ OEBPS/Text/chapter…  │ … │                      │ false     │                      │ highlight │
├──────────────────────┴──────────────────────┴──────────────────────┴──────────────────────┴───┴──────────────────────┴───────────┴──────────────────────┴───────────┤
│ 31 rows (3 shown)                                                                                                                              24 columns (8 shown) │
└─────────────────────────────────────────────────────────────────────────────────────────────────────────────────────────────────────────────────────────────────────┘
```

```sql
.maxrows 10
SELECT * FROM Bookmark;
```

```
┌──────────────────────┬──────────────────────┬──────────────────────┬──────────────────────┬───┬──────────────────────┬───────────┬──────────────────────┬───────────┐
│      BookmarkID      │       VolumeID       │      ContentID       │  StartContainerPath  │ … │       SyncTime       │ Published │    ContextString     │   Type    │
│       varchar        │       varchar        │       varchar        │       varchar        │   │       varchar        │  varchar  │       varchar        │  varchar  │
├──────────────────────┼──────────────────────┼──────────────────────┼──────────────────────┼───┼──────────────────────┼───────────┼──────────────────────┼───────────┤
│ 80b095b7-25f7-4476…  │ 2cbaa292-7eeb-4388…  │ 2cbaa292-7eeb-4388…  │ OEBPS/xhtml/Novi_9…  │ … │ 2022-12-30T15:24:41Z │ false     │ The food trays are…  │ dogear    │
│ 57bf2ec7-1d2a-49df…  │ 27f9517f-0f38-4ea7…  │ OEBPS/xhtml/Novi_9…  │ OEBPS/xhtml/Novi_9…  │ … │ 2023-03-07T06:17:47Z │ false     │ I nodded a bit gri…  │ dogear    │
│ ac011d90-1abc-48dd…  │ 866f442e-2078-43c3…  │ OEBPS/xhtml/Bogd_9…  │ span#kobo\.114\.3    │ … │ 2023-08-16T11:57:56Z │ false     │                      │ highlight │
│ 0869a5e2-fa89-4f3b…  │ 866f442e-2078-43c3…  │ OEBPS/xhtml/Bogd_9…  │ span#kobo\.115\.1    │ … │ 2023-08-16T11:57:56Z │ false     │                      │ highlight │
│ 08305a0f-2142-4b8d…  │ 866f442e-2078-43c3…  │ OEBPS/xhtml/Bogd_9…  │ span#kobo\.174\.2    │ … │ 2023-08-16T11:57:56Z │ false     │                      │ highlight │
│          ·           │          ·           │          ·           │         ·            │ · │          ·           │   ·       │          ·           │     ·     │
│          ·           │          ·           │          ·           │         ·            │ · │          ·           │   ·       │          ·           │     ·     │
│          ·           │          ·           │          ·           │         ·            │ · │          ·           │   ·       │          ·           │     ·     │
│ 4900a30a-8f81-499a…  │ file:///mnt/onboar…  │ file:///mnt/onboar…  │ OEBPS/Text/introdu…  │ … │                      │ false     │                      │ highlight │
│ c8ecdc87-a1dd-4a36…  │ file:///mnt/onboar…  │ file:///mnt/onboar…  │ OEBPS/Text/introdu…  │ … │                      │ false     │                      │ highlight │
│ 6c146f08-b82b-4991…  │ file:///mnt/onboar…  │ file:///mnt/onboar…  │ OEBPS/Text/introdu…  │ … │                      │ false     │                      │ highlight │
│ 638d7b45-217d-4866…  │ file:///mnt/onboar…  │ file:///mnt/onboar…  │ OEBPS/Text/chapter…  │ … │                      │ false     │                      │ highlight │
│ c18c2ca2-393b-4eda…  │ file:///mnt/onboar…  │ file:///mnt/onboar…  │ OEBPS/Text/chapter…  │ … │                      │ false     │                      │ highlight │
├──────────────────────┴──────────────────────┴──────────────────────┴──────────────────────┴───┴──────────────────────┴───────────┴──────────────────────┴───────────┤
│ 31 rows (10 shown)                                                                                                                             24 columns (8 shown) │
└─────────────────────────────────────────────────────────────────────────────────────────────────────────────────────────────────────────────────────────────────────┘
```
…
The database has a total of 33 tables, but I did not find very much useful data in the other tables.

## Query: List all books

```sql
.maxrows 5
SELECT DISTINCT BookTitle FROM content
WHERE BookTitle IS NOT NULL
ORDER BY BookTitle;
```

```
┌─────────────────────────────────────┐
│              BookTitle              │
│               varchar               │
├─────────────────────────────────────┤
│ 2034: A Novel of the Next World War │
│ A Deadly Education                  │
│ A Half-Built Garden                 │
│          ·                          │
│          ·                          │
│          ·                          │
│ When McKinsey Comes to Town         │
│ White Fragility                     │
├─────────────────────────────────────┤
│          60 rows (5 shown)          │
└─────────────────────────────────────┘
```
…
```sql
.maxrows 10
SELECT
    BookTitle,
    Title,
    CAST (VolumeIndex AS INT) AS VolumeIndex
FROM content
WHERE
    BookTitle IS NOT NULL
    AND MimeType != 'application/xhtml+xml'
ORDER BY BookTitle, VolumeIndex;
```

```
┌─────────────────────────────────────┬─────────────────────────────────────────────────────┬─────────────┐
│              BookTitle              │                        Title                        │ VolumeIndex │
│               varchar               │                       varchar                       │    int32    │
├─────────────────────────────────────┼─────────────────────────────────────────────────────┼─────────────┤
│ 2034: A Novel of the Next World War │ Cover                                               │           0 │
│ 2034: A Novel of the Next World War │ Also by Elliot Ackerman and Admiral James Stavridis │           1 │
│ 2034: A Novel of the Next World War │ Title Page                                          │           2 │
│ 2034: A Novel of the Next World War │ Copyright                                           │           3 │
│ 2034: A Novel of the Next World War │ Epigraph                                            │           4 │
│        ·                            │    ·                                                │           · │
│        ·                            │    ·                                                │           · │
│        ·                            │    ·                                                │           · │
│ White Fragility                     │ 12. Where Do We Go from Here?                       │          18 │
│ White Fragility                     │ Resources for Continuing Education                  │          19 │
│ White Fragility                     │ Acknowledgments                                     │          20 │
│ White Fragility                     │ Notes                                               │          21 │
│ White Fragility                     │ Copyright                                           │          22 │
├─────────────────────────────────────┴─────────────────────────────────────────────────────┴─────────────┤
│ 2585 rows (10 shown)                                                                          3 columns │
└─────────────────────────────────────────────────────────────────────────────────────────────────────────┘
```
…
```
┌──────────────────────┬──────────────────────┬──────────────────────┬─────────────────────────────────────────────────────────────┬────────────┬───────────┬────────────────────┐
│      BookTitle       │     ChapterTitle     │     DateCreated      │                            Text                             │ Annotation │   Type    │  ChapterProgress   │
│       varchar        │       varchar        │       varchar        │                           varchar                           │  varchar   │  varchar  │      varchar       │
├──────────────────────┼──────────────────────┼──────────────────────┼─────────────────────────────────────────────────────────────┼────────────┼───────────┼────────────────────┤
│ Artificial Condition │ Chapter Seven        │ 2023-12-27T13:14:0…  │ In the creche, our moms always said that fear was an arti…  │            │ highlight │ 0.712765957446809  │
│ INSPIRED: How to C…  │ Key Responsibilities │ 2024-04-04T05:38:2…  │ \n At one level, the responsibilities of the product mana…  │            │ highlight │ 0.180602           │
│ INSPIRED: How to C…  │ Deep Knowledge of …  │ 2024-04-04T05:38:5…  │ To summarize, these are the four critical contributions y…  │            │ highlight │ 0.190635           │
│ INSPIRED: How to C…  │ CHAPTER 33: Princi…  │ 2024-04-04T05:40:4…  │ The purpose of product discovery is to address these crit…  │            │ highlight │ 0.511706           │
│ INSPIRED: How to C…  │ CHAPTER 35: Opport…  │ 2024-04-04T05:42:2…  │ An opportunity assessment is an extremely simple techniqu…  │            │ highlight │ 0.551839           │
│          ·           │          ·           │          ·           │                              ·                              │     ·      │     ·     │    ·               │
│          ·           │          ·           │          ·           │                              ·                              │     ·      │     ·     │    ·               │
│          ·           │          ·           │          ·           │                              ·                              │     ·      │     ·     │    ·               │
│ Some People Need K…  │ Chapter 2: The Sur…  │ 2024-01-02T06:22:4…  │ Four months later, President McKinley demanded that Filip…  │            │ highlight │ 0.0704607046070461 │
│ There Must Be a Po…  │ Epilogue             │ 2024-05-20T15:25:2…  │ . As a generator of instant wealth, the Net may now be a …  │            │ highlight │ 0.933333333333333  │
│                      │                      │ 2023-07-20T05:59:4…  │ Cesar                                                       │            │ highlight │ 0.517241379310345  │
│                      │                      │ 2023-07-20T05:59:5…  │ —\n\t\t\tSome ICE staffers were growing frustrated with     │            │ highlight │ 0.517241379310345  │
│                      │                      │ 2023-08-06T07:52:0…  │ looking for is how much we can see, how we would log things │            │ highlight │ 0.806451612903226  │
├──────────────────────┴──────────────────────┴──────────────────────┴─────────────────────────────────────────────────────────────┴────────────┴───────────┴────────────────────┤
│ 29 rows (10 shown)                                                                                                                                                   7 columns │
└────────────────────────────────────────────────────────────────────────────────────────────────────────────────────────────────────────────────────────────────────────────────┘
```
…
